{
  "type": "service_account",
  "project_id": "owenprogforthecloud2020",
  "private_key_id": "160bd09edc5c56fc0b7a63446426455b30e4f563",
  "private_key": "-----BEGIN PRIVATE KEY-----\nMIIEuwIBADANBgkqhkiG9w0BAQEFAASCBKUwggShAgEAAoIBAQDH6LdV6BXoZuFK\n2HYUevVYul08Uv3b+bfjEl/SE+M2vraTi6PKo4ZgtF41vL8HVoItDoJVZ8BS/5t2\nljkh6gzsc7yR82bY5yg8bxcsDSA8jSzLvzOOe7b7WDIRG7B9u976DI9fEh4MMeUi\n/DsTAL3X4itRaJamP9P5b+haodYZa+GgpaTIDP7VtK+zIYj+UF1oYsq0cuOf8qT/\nQe/kHpmkutjD9E57P68fwzlzhk4TXnSTiJWWhCOcojETEFULtXsJwhIsH9h+bPkr\njE0i3uh1S537UrJ3hQTBew693S8h4VHPHx61blpEkAm+vBONzU4psjyhnGOlZj9J\n/0LD/mCtAgMBAAECggEABR2rrMX4ODmDHs8O/TOFBNocGbeb/zL9pZDU+pjUsel2\niFcaACJoMCBditguNqoG7HqYaPFzRrcmNjDeUcOzb0z/mz0/OWIiXE2Rf73u6xhy\neDJdR5JbRUUQCZ0LoA7HRDSUagqaJ0C9oZln3510vkoaRrE7rbx+GGjolC0xFUxq\n/OHODzaQOgn5/uM3KL436DtKvRHRQmDo4IE5Ry2DhOrwPQ+KDaLIEuKvvAvi23Rv\nMgAXFBQZib8B8TjNs/oYXzABOqITae/IdLqZTf++3j9TCkzuiM3Qe2jfkgcRAGHM\nGMBKN2da9Ob7Le/cgfmFzC1t2TqM19RoHkNEjvU39wKBgQD+O58SemxpD7hzhvW/\nvQk7dRMrcQVMw5q4mg/86cyY5TNoB9CR6TQNaC1aAd8MoLgSkIbh08lccwO1gKoj\nkzeCug8fcHg+2KUhPzu4KN/if3Czn4Y+d01k1b1TWNXYUeMW9pO8LKaGE7+FU40m\nz6hGUvAHor7uG0i0uJPGzI+uRwKBgQDJTG6AcRjSiIRvH6XdQceoGg0AAaHk4UDC\ne9IzopxIRQsRLvUjmaBSA6/UFnV8HFbcXILL+p5yHZrD4y8Go2OJJb4G9kWs7dJD\nwqLZUXNHFk/x+LCSKW1i1NELNtWtIyks5cPXMmBV/ulIeEDKurso58tI95RPF81P\n9FjQNsKvawKBgQDmO2wlOcTvqBLsXG41A6ZWuAFyN9oK2KFHSA3uhnSIihhxv5H8\ncWp4Mb3QYx1xvCK2fTgJTtht5qKXPjvWF74PnxuO5zWeBGgWocMdVbba0Xpo0LCr\n5TKrfH0F+889JXs4Enlb0jvD9CJfRXjwiuHjPbytzY6G5yKCtxzszdfYhQJ/Kz9A\nflfN/W1XBojGGcMIIhV2tYmkPogmYaI4ht9otB4hQo/UGtHmn7grDmXE1+U+xBkc\nALbXU60Ikw08DTENMWnqaZR/Y6e0hNpMImRdX+hrRJEpXj2IQrN2NfKR9aCYOA0l\nBhbMm60ocWlkgimcDC3Afuyx8Ews0ACvFAyvxwKBgGC0Q+KcB1iy4mJMrv81x3fc\nFKZBa58SO1Nf+FRjqbmRzpQNB/EF7VEAdiTK1GM8TTFUnMmhu44O/fotavB4eW+c\nPCGCaUI01Hgk93ppSxXozCKvZrtBGUS1CqPzpVEbbBB/xw3W5wuX219UpWWP7r3E\nqmXIxBMMngsYDixseqjb\n-----END PRIVATE KEY-----\n",
  "client_email": "pfc104@owenprogforthecloud2020.iam.gserviceaccount.com",
  "client_id": "105098458416578103102",
  "auth_uri": "https://accounts.google.com/o/oauth2/auth",
  "token_uri": "https://oauth2.googleapis.com/token",
  "auth_provider_x509_cert_url": "https://www.googleapis.com/oauth2/v1/certs",
  "client_x509_cert_url": "https://www.googleapis.com/robot/v1/metadata/x509/pfc104%40owenprogforthecloud2020.iam.gserviceaccount.com"
}
